<mxfile host="app.diagrams.net" modified="2021-06-10T02:28:18.104Z" agent="5.0 (Windows NT 6.1; Win64; x64) AppleWebKit/537.36 (KHTML, like Gecko) Chrome/91.0.4472.77 Safari/537.36" etag="Gp5y9MDPZ7cCuRQL4CYo" version="14.7.6" type="gitlab">
  <diagram id="6MEFERqnOx-LWBSkWzGf" name="Page-1">
    <mxGraphModel dx="981" dy="526" grid="1" gridSize="10" guides="1" tooltips="1" connect="1" arrows="1" fold="1" page="1" pageScale="1" pageWidth="1169" pageHeight="827" math="0" shadow="0">
      <root>
        <mxCell id="0" />
        <mxCell id="1" parent="0" />
        <mxCell id="fD6uPAkA5mX36j1qqzNS-7" style="edgeStyle=orthogonalEdgeStyle;rounded=0;orthogonalLoop=1;jettySize=auto;html=1;entryX=0.5;entryY=1;entryDx=0;entryDy=0;entryPerimeter=0;endArrow=none;endFill=0;" edge="1" parent="1" source="fD6uPAkA5mX36j1qqzNS-1" target="fD6uPAkA5mX36j1qqzNS-2">
          <mxGeometry relative="1" as="geometry" />
        </mxCell>
        <mxCell id="fD6uPAkA5mX36j1qqzNS-1" value="&amp;lt;&amp;lt; device &amp;gt;&amp;gt;&lt;br&gt;&lt;br&gt;Sensor" style="verticalAlign=top;align=center;spacingTop=8;spacingLeft=2;spacingRight=12;shape=cube;size=10;direction=south;fontStyle=0;html=1;" vertex="1" parent="1">
          <mxGeometry x="160" y="294" width="180" height="120" as="geometry" />
        </mxCell>
        <mxCell id="fD6uPAkA5mX36j1qqzNS-10" style="edgeStyle=orthogonalEdgeStyle;rounded=0;orthogonalLoop=1;jettySize=auto;html=1;entryX=0.506;entryY=1.006;entryDx=0;entryDy=0;entryPerimeter=0;endArrow=none;endFill=0;" edge="1" parent="1" source="fD6uPAkA5mX36j1qqzNS-2" target="fD6uPAkA5mX36j1qqzNS-9">
          <mxGeometry relative="1" as="geometry" />
        </mxCell>
        <mxCell id="fD6uPAkA5mX36j1qqzNS-2" value="&amp;lt;&amp;lt; device &amp;gt;&amp;gt;&lt;br&gt;&lt;br&gt;Router&lt;br&gt;" style="verticalAlign=top;align=center;spacingTop=8;spacingLeft=2;spacingRight=12;shape=cube;size=10;direction=south;fontStyle=0;html=1;" vertex="1" parent="1">
          <mxGeometry x="480" y="294" width="180" height="120" as="geometry" />
        </mxCell>
        <mxCell id="fD6uPAkA5mX36j1qqzNS-9" value="&amp;lt;&amp;lt; device &amp;gt;&amp;gt;&lt;br&gt;&lt;br&gt;PC" style="verticalAlign=top;align=center;spacingTop=8;spacingLeft=2;spacingRight=12;shape=cube;size=10;direction=south;fontStyle=0;html=1;" vertex="1" parent="1">
          <mxGeometry x="790" y="294" width="180" height="120" as="geometry" />
        </mxCell>
        <mxCell id="fD6uPAkA5mX36j1qqzNS-15" value="" style="html=1;outlineConnect=0;whiteSpace=wrap;shape=mxgraph.archimate.application;appType=artifact" vertex="1" parent="1">
          <mxGeometry x="810" y="360" width="130" height="40" as="geometry" />
        </mxCell>
        <mxCell id="fD6uPAkA5mX36j1qqzNS-16" value="&lt;font style=&quot;font-size: 9px&quot;&gt;&amp;lt;&amp;lt; artifact &amp;gt;&amp;gt;&lt;br&gt;server.exe&lt;/font&gt;" style="text;html=1;align=center;verticalAlign=middle;resizable=0;points=[];autosize=1;strokeColor=none;" vertex="1" parent="1">
          <mxGeometry x="840" y="360" width="70" height="40" as="geometry" />
        </mxCell>
        <mxCell id="fD6uPAkA5mX36j1qqzNS-17" value="&lt;font style=&quot;font-size: 10px&quot;&gt;&amp;lt;&amp;lt; TCP/IP &amp;gt;&amp;gt;&lt;/font&gt;" style="text;html=1;align=center;verticalAlign=middle;resizable=0;points=[];autosize=1;strokeColor=none;" vertex="1" parent="1">
          <mxGeometry x="370" y="330" width="80" height="20" as="geometry" />
        </mxCell>
        <mxCell id="fD6uPAkA5mX36j1qqzNS-18" value="&lt;font style=&quot;font-size: 10px&quot;&gt;&amp;lt;&amp;lt; TCP/IP &amp;gt;&amp;gt;&lt;/font&gt;" style="text;html=1;align=center;verticalAlign=middle;resizable=0;points=[];autosize=1;strokeColor=none;" vertex="1" parent="1">
          <mxGeometry x="690" y="330" width="80" height="20" as="geometry" />
        </mxCell>
      </root>
    </mxGraphModel>
  </diagram>
</mxfile>
